<?xml version="1.0" encoding="UTF-8" standalone="no"?>
<!DOCTYPE svg PUBLIC "-//W3C//DTD SVG 1.1//EN"
 "http://www.w3.org/Graphics/SVG/1.1/DTD/svg11.dtd">
<!-- Generated by graphviz version 2.40.1 (20161225.0304)
 -->
<!-- Title: dependencies Pages: 1 -->
<svg width="6361pt" height="363pt"
 viewBox="0.00 0.00 6361.00 363.00" xmlns="http://www.w3.org/2000/svg" xmlns:xlink="http://www.w3.org/1999/xlink">
<g id="graph0" class="graph" transform="scale(1 1) rotate(0) translate(4 359)">
<title>dependencies</title>
<polygon fill="#ffffff" stroke="transparent" points="-4,4 -4,-359 6357,-359 6357,4 -4,4"/>
<text text-anchor="start" x="3155.5091" y="-42.4" font-family="sans-serif" font-weight="bold" font-size="14.00" fill="#000000">Legend</text>
<polygon fill="#ffffb3" stroke="transparent" points="2942.5,-10 2942.5,-30 2962.5,-30 2962.5,-10 2942.5,-10"/>
<text text-anchor="start" x="2966.129" y="-15.4" font-family="sans-serif" font-size="14.00" fill="#000000"> &#160;Declarations</text>
<polygon fill="#8dd3c7" stroke="transparent" points="3055.5,-10 3055.5,-30 3075.5,-30 3075.5,-10 3055.5,-10"/>
<text text-anchor="start" x="3079.2251" y="-15.4" font-family="sans-serif" font-size="14.00" fill="#000000"> &#160;Module</text>
<polygon fill="#80b1d3" stroke="transparent" points="3141.5,-10 3141.5,-30 3161.5,-30 3161.5,-10 3141.5,-10"/>
<text text-anchor="start" x="3165.2812" y="-15.4" font-family="sans-serif" font-size="14.00" fill="#000000"> &#160;Bootstrap</text>
<polygon fill="#fdb462" stroke="transparent" points="3238.5,-10 3238.5,-30 3258.5,-30 3258.5,-10 3238.5,-10"/>
<text text-anchor="start" x="3262.1732" y="-15.4" font-family="sans-serif" font-size="14.00" fill="#000000"> &#160;Providers</text>
<polygon fill="#fb8072" stroke="transparent" points="3334.5,-10 3334.5,-30 3354.5,-30 3354.5,-10 3334.5,-10"/>
<text text-anchor="start" x="3358.2258" y="-15.4" font-family="sans-serif" font-size="14.00" fill="#000000"> &#160;Exports</text>
<g id="clust1" class="cluster">
<title>cluster_AppModule</title>
<polygon fill="none" stroke="#000000" stroke-dasharray="1,5" points="877,-146 877,-347 5769,-347 5769,-146 877,-146"/>
</g>
<g id="clust2" class="cluster">
<title>cluster_AppModule_declarations</title>
<polygon fill="none" stroke="#000000" points="1319,-154 1319,-206 5761,-206 5761,-154 1319,-154"/>
</g>
<g id="clust36" class="cluster">
<title>cluster_AppModule_imports</title>
<polygon fill="none" stroke="#000000" points="885,-154 885,-206 1311,-206 1311,-154 885,-154"/>
</g>
<g id="clust38" class="cluster">
<title>cluster_AppModule_bootstrap</title>
<polygon fill="none" stroke="#000000" points="3365,-287 3365,-339 3453,-339 3453,-287 3365,-287"/>
</g>
<g id="clust40" class="cluster">
<title>cluster_ComponentsModule</title>
<polygon fill="none" stroke="#000000" stroke-dasharray="1,5" points="5777,-70 5777,-279 6215,-279 6215,-70 5777,-70"/>
</g>
<g id="clust41" class="cluster">
<title>cluster_ComponentsModule_declarations</title>
<polygon fill="none" stroke="#000000" points="5789,-78 5789,-130 6204,-130 6204,-78 5789,-78"/>
</g>
<g id="clust45" class="cluster">
<title>cluster_ComponentsModule_exports</title>
<polygon fill="none" stroke="#000000" points="5785,-219 5785,-271 6207,-271 6207,-219 5785,-219"/>
</g>
<g id="clust48" class="cluster">
<title>cluster_HetznerApiProviderModule</title>
<polygon fill="none" stroke="#000000" stroke-dasharray="1,5" points="8,-70 8,-138 1612,-138 1612,-70 8,-70"/>
</g>
<g id="clust53" class="cluster">
<title>cluster_HetznerApiProviderModule_providers</title>
<polygon fill="none" stroke="#000000" points="16,-78 16,-130 1604,-130 1604,-78 16,-78"/>
</g>
<g id="clust54" class="cluster">
<title>cluster_PipesModule</title>
<polygon fill="none" stroke="#000000" stroke-dasharray="1,5" points="6223,-70 6223,-279 6345,-279 6345,-70 6223,-70"/>
</g>
<g id="clust55" class="cluster">
<title>cluster_PipesModule_declarations</title>
<polygon fill="none" stroke="#000000" points="6233,-78 6233,-130 6335,-130 6335,-78 6233,-78"/>
</g>
<g id="clust58" class="cluster">
<title>cluster_PipesModule_exports</title>
<polygon fill="none" stroke="#000000" points="6231,-219 6231,-271 6337,-271 6337,-219 6231,-219"/>
</g>
<g id="clust61" class="cluster">
<title>cluster_ProjectModule</title>
<polygon fill="none" stroke="#000000" stroke-dasharray="1,5" points="1620,-70 1620,-138 1794,-138 1794,-70 1620,-70"/>
</g>
<g id="clust66" class="cluster">
<title>cluster_ProjectModule_providers</title>
<polygon fill="none" stroke="#000000" points="1628,-78 1628,-130 1786,-130 1786,-78 1628,-78"/>
</g>
<g id="clust67" class="cluster">
<title>cluster_ServersModule</title>
<polygon fill="none" stroke="#000000" stroke-dasharray="1,5" points="1802,-70 1802,-138 1972,-138 1972,-70 1802,-70"/>
</g>
<g id="clust72" class="cluster">
<title>cluster_ServersModule_providers</title>
<polygon fill="none" stroke="#000000" points="1810,-78 1810,-130 1964,-130 1964,-78 1810,-78"/>
</g>
<!-- HetznerCloudMobileApp -->
<g id="node1" class="node">
<title>HetznerCloudMobileApp</title>
<polygon fill="#ffffb3" stroke="#000000" points="5752.5758,-198 5593.4242,-198 5593.4242,-162 5752.5758,-162 5752.5758,-198"/>
<text text-anchor="middle" x="5673" y="-175.8" font-family="Times,serif" font-size="14.00" fill="#000000">HetznerCloudMobileApp</text>
</g>
<!-- AppModule -->
<g id="node34" class="node">
<title>AppModule</title>
<polygon fill="#8dd3c7" stroke="#000000" points="3450.6571,-263 3447.6571,-267 3426.6571,-267 3423.6571,-263 3367.3429,-263 3367.3429,-227 3450.6571,-227 3450.6571,-263"/>
<text text-anchor="middle" x="3409" y="-240.8" font-family="Times,serif" font-size="14.00" fill="#000000">AppModule</text>
</g>
<!-- HetznerCloudMobileApp&#45;&gt;AppModule -->
<g id="edge1" class="edge">
<title>HetznerCloudMobileApp&#45;&gt;AppModule</title>
<path fill="none" stroke="#000000" d="M5673,-198.3802C5673,-222.2785 5673,-261 5673,-261 5673,-261 3460.7186,-261 3460.7186,-261"/>
<polygon fill="#000000" stroke="#000000" points="3460.7186,-257.5001 3450.7186,-261 3460.7185,-264.5001 3460.7186,-257.5001"/>
</g>
<!-- AboutPage -->
<g id="node2" class="node">
<title>AboutPage</title>
<polygon fill="#ffffb3" stroke="#000000" points="5575.2093,-198 5496.7907,-198 5496.7907,-162 5575.2093,-162 5575.2093,-198"/>
<text text-anchor="middle" x="5536" y="-175.8" font-family="Times,serif" font-size="14.00" fill="#000000">AboutPage</text>
</g>
<!-- AboutPage&#45;&gt;AppModule -->
<g id="edge2" class="edge">
<title>AboutPage&#45;&gt;AppModule</title>
<path fill="none" stroke="#000000" d="M5536,-198.3228C5536,-221.6602 5536,-259 5536,-259 5536,-259 3461.0095,-259 3461.0095,-259"/>
<polygon fill="#000000" stroke="#000000" points="3461.0095,-255.5001 3451.0095,-259 3461.0095,-262.5001 3461.0095,-255.5001"/>
</g>
<!-- HomePage -->
<g id="node3" class="node">
<title>HomePage</title>
<polygon fill="#ffffb3" stroke="#000000" points="5478.9248,-198 5401.0752,-198 5401.0752,-162 5478.9248,-162 5478.9248,-198"/>
<text text-anchor="middle" x="5440" y="-175.8" font-family="Times,serif" font-size="14.00" fill="#000000">HomePage</text>
</g>
<!-- HomePage&#45;&gt;AppModule -->
<g id="edge3" class="edge">
<title>HomePage&#45;&gt;AppModule</title>
<path fill="none" stroke="#000000" d="M5440,-198.2479C5440,-221.0179 5440,-257 5440,-257 5440,-257 3460.9541,-257 3460.9541,-257"/>
<polygon fill="#000000" stroke="#000000" points="3460.9542,-253.5001 3450.9541,-257 3460.9541,-260.5001 3460.9542,-253.5001"/>
</g>
<!-- ProjectsPage -->
<g id="node4" class="node">
<title>ProjectsPage</title>
<polygon fill="#ffffb3" stroke="#000000" points="5383.3105,-198 5294.6895,-198 5294.6895,-162 5383.3105,-162 5383.3105,-198"/>
<text text-anchor="middle" x="5339" y="-175.8" font-family="Times,serif" font-size="14.00" fill="#000000">ProjectsPage</text>
</g>
<!-- ProjectsPage&#45;&gt;AppModule -->
<g id="edge4" class="edge">
<title>ProjectsPage&#45;&gt;AppModule</title>
<path fill="none" stroke="#000000" d="M5339,-198.1554C5339,-220.3519 5339,-255 5339,-255 5339,-255 3461.1057,-255 3461.1057,-255"/>
<polygon fill="#000000" stroke="#000000" points="3461.1057,-251.5001 3451.1057,-255 3461.1057,-258.5001 3461.1057,-251.5001"/>
</g>
<!-- addProjectModal -->
<g id="node5" class="node">
<title>addProjectModal</title>
<polygon fill="#ffffb3" stroke="#000000" points="5277.4188,-198 5164.5812,-198 5164.5812,-162 5277.4188,-162 5277.4188,-198"/>
<text text-anchor="middle" x="5221" y="-175.8" font-family="Times,serif" font-size="14.00" fill="#000000">addProjectModal</text>
</g>
<!-- addProjectModal&#45;&gt;AppModule -->
<g id="edge5" class="edge">
<title>addProjectModal&#45;&gt;AppModule</title>
<path fill="none" stroke="#000000" d="M5221,-198.0449C5221,-219.6623 5221,-253 5221,-253 5221,-253 3460.6858,-253 3460.6858,-253"/>
<polygon fill="#000000" stroke="#000000" points="3460.6859,-249.5001 3450.6858,-253 3460.6858,-256.5001 3460.6859,-249.5001"/>
</g>
<!-- shareProjectModal -->
<g id="node6" class="node">
<title>shareProjectModal</title>
<polygon fill="#ffffb3" stroke="#000000" points="5146.7381,-198 5025.2619,-198 5025.2619,-162 5146.7381,-162 5146.7381,-198"/>
<text text-anchor="middle" x="5086" y="-175.8" font-family="Times,serif" font-size="14.00" fill="#000000">shareProjectModal</text>
</g>
<!-- shareProjectModal&#45;&gt;AppModule -->
<g id="edge6" class="edge">
<title>shareProjectModal&#45;&gt;AppModule</title>
<path fill="none" stroke="#000000" d="M5086,-198.2843C5086,-219.3211 5086,-251 5086,-251 5086,-251 3460.8726,-251 3460.8726,-251"/>
<polygon fill="#000000" stroke="#000000" points="3460.8726,-247.5001 3450.8726,-251 3460.8725,-254.5001 3460.8726,-247.5001"/>
</g>
<!-- editProjectModal -->
<g id="node7" class="node">
<title>editProjectModal</title>
<polygon fill="#ffffb3" stroke="#000000" points="5007.6994,-198 4894.3006,-198 4894.3006,-162 5007.6994,-162 5007.6994,-198"/>
<text text-anchor="middle" x="4951" y="-175.8" font-family="Times,serif" font-size="14.00" fill="#000000">editProjectModal</text>
</g>
<!-- editProjectModal&#45;&gt;AppModule -->
<g id="edge7" class="edge">
<title>editProjectModal&#45;&gt;AppModule</title>
<path fill="none" stroke="#000000" d="M4951,-198.1289C4951,-218.5724 4951,-249 4951,-249 4951,-249 3461.0445,-249 3461.0445,-249"/>
<polygon fill="#000000" stroke="#000000" points="3461.0445,-245.5001 3451.0445,-249 3461.0445,-252.5001 3461.0445,-245.5001"/>
</g>
<!-- ServersPage -->
<g id="node8" class="node">
<title>ServersPage</title>
<polygon fill="#ffffb3" stroke="#000000" points="4876.6896,-198 4791.3104,-198 4791.3104,-162 4876.6896,-162 4876.6896,-198"/>
<text text-anchor="middle" x="4834" y="-175.8" font-family="Times,serif" font-size="14.00" fill="#000000">ServersPage</text>
</g>
<!-- ServersPage&#45;&gt;AppModule -->
<g id="edge8" class="edge">
<title>ServersPage&#45;&gt;AppModule</title>
<path fill="none" stroke="#000000" d="M4834,-198.308C4834,-218.1455 4834,-247 4834,-247 4834,-247 3460.8758,-247 3460.8758,-247"/>
<polygon fill="#000000" stroke="#000000" points="3460.8758,-243.5001 3450.8758,-247 3460.8758,-250.5001 3460.8758,-243.5001"/>
</g>
<!-- ServerPage -->
<g id="node9" class="node">
<title>ServerPage</title>
<polygon fill="#ffffb3" stroke="#000000" points="4773.7452,-198 4694.2548,-198 4694.2548,-162 4773.7452,-162 4773.7452,-198"/>
<text text-anchor="middle" x="4734" y="-175.8" font-family="Times,serif" font-size="14.00" fill="#000000">ServerPage</text>
</g>
<!-- ServerPage&#45;&gt;AppModule -->
<g id="edge9" class="edge">
<title>ServerPage&#45;&gt;AppModule</title>
<path fill="none" stroke="#000000" d="M4734,-198.1061C4734,-217.3391 4734,-245 4734,-245 4734,-245 3460.843,-245 3460.843,-245"/>
<polygon fill="#000000" stroke="#000000" points="3460.8431,-241.5001 3450.843,-245 3460.843,-248.5001 3460.8431,-241.5001"/>
</g>
<!-- addServerModal -->
<g id="node10" class="node">
<title>addServerModal</title>
<polygon fill="#ffffb3" stroke="#000000" points="4675.7978,-198 4566.2022,-198 4566.2022,-162 4675.7978,-162 4675.7978,-198"/>
<text text-anchor="middle" x="4621" y="-175.8" font-family="Times,serif" font-size="14.00" fill="#000000">addServerModal</text>
</g>
<!-- addServerModal&#45;&gt;AppModule -->
<g id="edge10" class="edge">
<title>addServerModal&#45;&gt;AppModule</title>
<path fill="none" stroke="#000000" d="M4621,-198.2222C4621,-216.8285 4621,-243 4621,-243 4621,-243 3460.7198,-243 3460.7198,-243"/>
<polygon fill="#000000" stroke="#000000" points="3460.7198,-239.5001 3450.7198,-243 3460.7197,-246.5001 3460.7198,-239.5001"/>
</g>
<!-- editServerModal -->
<g id="node11" class="node">
<title>editServerModal</title>
<polygon fill="#ffffb3" stroke="#000000" points="4548.0786,-198 4437.9214,-198 4437.9214,-162 4548.0786,-162 4548.0786,-198"/>
<text text-anchor="middle" x="4493" y="-175.8" font-family="Times,serif" font-size="14.00" fill="#000000">editServerModal</text>
</g>
<!-- editServerModal&#45;&gt;AppModule -->
<g id="edge11" class="edge">
<title>editServerModal&#45;&gt;AppModule</title>
<path fill="none" stroke="#000000" d="M4493,-198.302C4493,-216.2699 4493,-241 4493,-241 4493,-241 3460.8299,-241 3460.8299,-241"/>
<polygon fill="#000000" stroke="#000000" points="3460.8299,-237.5001 3450.8299,-241 3460.8298,-244.5001 3460.8299,-237.5001"/>
</g>
<!-- powerSettingsModal -->
<g id="node12" class="node">
<title>powerSettingsModal</title>
<polygon fill="#ffffb3" stroke="#000000" points="4420.1457,-198 4287.8543,-198 4287.8543,-162 4420.1457,-162 4420.1457,-198"/>
<text text-anchor="middle" x="4354" y="-175.8" font-family="Times,serif" font-size="14.00" fill="#000000">powerSettingsModal</text>
</g>
<!-- powerSettingsModal&#45;&gt;AppModule -->
<g id="edge12" class="edge">
<title>powerSettingsModal&#45;&gt;AppModule</title>
<path fill="none" stroke="#000000" d="M4354,-198.0225C4354,-215.3734 4354,-239 4354,-239 4354,-239 3460.8248,-239 3460.8248,-239"/>
<polygon fill="#000000" stroke="#000000" points="3460.8248,-235.5001 3450.8248,-239 3460.8248,-242.5001 3460.8248,-235.5001"/>
</g>
<!-- rescueModeModal -->
<g id="node13" class="node">
<title>rescueModeModal</title>
<polygon fill="#ffffb3" stroke="#000000" points="4269.458,-198 4148.542,-198 4148.542,-162 4269.458,-162 4269.458,-198"/>
<text text-anchor="middle" x="4209" y="-175.8" font-family="Times,serif" font-size="14.00" fill="#000000">rescueModeModal</text>
</g>
<!-- rescueModeModal&#45;&gt;AppModule -->
<g id="edge13" class="edge">
<title>rescueModeModal&#45;&gt;AppModule</title>
<path fill="none" stroke="#000000" d="M4209,-198.0352C4209,-214.7344 4209,-237 4209,-237 4209,-237 3460.8851,-237 3460.8851,-237"/>
<polygon fill="#000000" stroke="#000000" points="3460.8851,-233.5001 3450.8851,-237 3460.8851,-240.5001 3460.8851,-233.5001"/>
</g>
<!-- resizeServerModal -->
<g id="node14" class="node">
<title>resizeServerModal</title>
<polygon fill="#ffffb3" stroke="#000000" points="4130.7227,-198 4009.2773,-198 4009.2773,-162 4130.7227,-162 4130.7227,-198"/>
<text text-anchor="middle" x="4070" y="-175.8" font-family="Times,serif" font-size="14.00" fill="#000000">resizeServerModal</text>
</g>
<!-- resizeServerModal&#45;&gt;AppModule -->
<g id="edge14" class="edge">
<title>resizeServerModal&#45;&gt;AppModule</title>
<path fill="none" stroke="#000000" d="M4070,-198.0091C4070,-214.0494 4070,-235 4070,-235 4070,-235 3460.85,-235 3460.85,-235"/>
<polygon fill="#000000" stroke="#000000" points="3460.85,-231.5001 3450.85,-235 3460.8499,-238.5001 3460.85,-231.5001"/>
</g>
<!-- backupSettingsModal -->
<g id="node15" class="node">
<title>backupSettingsModal</title>
<polygon fill="#ffffb3" stroke="#000000" points="3991.0926,-198 3852.9074,-198 3852.9074,-162 3991.0926,-162 3991.0926,-198"/>
<text text-anchor="middle" x="3922" y="-175.8" font-family="Times,serif" font-size="14.00" fill="#000000">backupSettingsModal</text>
</g>
<!-- backupSettingsModal&#45;&gt;AppModule -->
<g id="edge15" class="edge">
<title>backupSettingsModal&#45;&gt;AppModule</title>
<path fill="none" stroke="#000000" d="M3922,-198.2396C3922,-213.5706 3922,-233 3922,-233 3922,-233 3460.9809,-233 3460.9809,-233"/>
<polygon fill="#000000" stroke="#000000" points="3460.981,-229.5001 3450.9809,-233 3460.9809,-236.5001 3460.981,-229.5001"/>
</g>
<!-- FloatingIPsPage -->
<g id="node16" class="node">
<title>FloatingIPsPage</title>
<polygon fill="#ffffb3" stroke="#000000" points="3834.7688,-198 3727.2312,-198 3727.2312,-162 3834.7688,-162 3834.7688,-198"/>
<text text-anchor="middle" x="3781" y="-175.8" font-family="Times,serif" font-size="14.00" fill="#000000">FloatingIPsPage</text>
</g>
<!-- FloatingIPsPage&#45;&gt;AppModule -->
<g id="edge16" class="edge">
<title>FloatingIPsPage&#45;&gt;AppModule</title>
<path fill="none" stroke="#000000" d="M3781,-198.1243C3781,-212.7832 3781,-231 3781,-231 3781,-231 3460.95,-231 3460.95,-231"/>
<polygon fill="#000000" stroke="#000000" points="3460.95,-227.5001 3450.95,-231 3460.95,-234.5001 3460.95,-227.5001"/>
</g>
<!-- addFloatingIPModal -->
<g id="node17" class="node">
<title>addFloatingIPModal</title>
<polygon fill="#ffffb3" stroke="#000000" points="3708.8767,-198 3577.1233,-198 3577.1233,-162 3708.8767,-162 3708.8767,-198"/>
<text text-anchor="middle" x="3643" y="-175.8" font-family="Times,serif" font-size="14.00" fill="#000000">addFloatingIPModal</text>
</g>
<!-- addFloatingIPModal&#45;&gt;AppModule -->
<g id="edge17" class="edge">
<title>addFloatingIPModal&#45;&gt;AppModule</title>
<path fill="none" stroke="#000000" d="M3643,-198.2458C3643,-212.1772 3643,-229 3643,-229 3643,-229 3460.8345,-229 3460.8345,-229"/>
<polygon fill="#000000" stroke="#000000" points="3460.8345,-225.5001 3450.8345,-229 3460.8345,-232.5001 3460.8345,-225.5001"/>
</g>
<!-- DeleteAllDataPage -->
<g id="node18" class="node">
<title>DeleteAllDataPage</title>
<polygon fill="#ffffb3" stroke="#000000" points="3559.0576,-198 3434.9424,-198 3434.9424,-162 3559.0576,-162 3559.0576,-198"/>
<text text-anchor="middle" x="3497" y="-175.8" font-family="Times,serif" font-size="14.00" fill="#000000">DeleteAllDataPage</text>
</g>
<!-- DeleteAllDataPage&#45;&gt;AppModule -->
<g id="edge18" class="edge">
<title>DeleteAllDataPage&#45;&gt;AppModule</title>
<path fill="none" stroke="#000000" d="M3442.8997,-198.1061C3442.8997,-198.1061 3442.8997,-216.991 3442.8997,-216.991"/>
<polygon fill="#000000" stroke="#000000" points="3439.3998,-216.9909 3442.8997,-226.991 3446.3998,-216.991 3439.3998,-216.9909"/>
</g>
<!-- changeIPv4ReverseDNSModal -->
<g id="node19" class="node">
<title>changeIPv4ReverseDNSModal</title>
<polygon fill="#ffffb3" stroke="#000000" points="3416.7184,-198 3225.2816,-198 3225.2816,-162 3416.7184,-162 3416.7184,-198"/>
<text text-anchor="middle" x="3321" y="-175.8" font-family="Times,serif" font-size="14.00" fill="#000000">changeIPv4ReverseDNSModal</text>
</g>
<!-- changeIPv4ReverseDNSModal&#45;&gt;AppModule -->
<g id="edge19" class="edge">
<title>changeIPv4ReverseDNSModal&#45;&gt;AppModule</title>
<path fill="none" stroke="#000000" d="M3392.0155,-198.1061C3392.0155,-198.1061 3392.0155,-216.991 3392.0155,-216.991"/>
<polygon fill="#000000" stroke="#000000" points="3388.5155,-216.9909 3392.0155,-226.991 3395.5155,-216.991 3388.5155,-216.9909"/>
</g>
<!-- changeIPv6ReverseDNSModal -->
<g id="node20" class="node">
<title>changeIPv6ReverseDNSModal</title>
<polygon fill="#ffffb3" stroke="#000000" points="3206.7184,-198 3015.2816,-198 3015.2816,-162 3206.7184,-162 3206.7184,-198"/>
<text text-anchor="middle" x="3111" y="-175.8" font-family="Times,serif" font-size="14.00" fill="#000000">changeIPv6ReverseDNSModal</text>
</g>
<!-- changeIPv6ReverseDNSModal&#45;&gt;AppModule -->
<g id="edge20" class="edge">
<title>changeIPv6ReverseDNSModal&#45;&gt;AppModule</title>
<path fill="none" stroke="#000000" d="M3111,-198.2458C3111,-212.1772 3111,-229 3111,-229 3111,-229 3357.2506,-229 3357.2506,-229"/>
<polygon fill="#000000" stroke="#000000" points="3357.2506,-232.5001 3367.2506,-229 3357.2506,-225.5001 3357.2506,-232.5001"/>
</g>
<!-- editFloatingIpModal -->
<g id="node21" class="node">
<title>editFloatingIpModal</title>
<polygon fill="#ffffb3" stroke="#000000" points="2996.8753,-198 2865.1247,-198 2865.1247,-162 2996.8753,-162 2996.8753,-198"/>
<text text-anchor="middle" x="2931" y="-175.8" font-family="Times,serif" font-size="14.00" fill="#000000">editFloatingIpModal</text>
</g>
<!-- editFloatingIpModal&#45;&gt;AppModule -->
<g id="edge21" class="edge">
<title>editFloatingIpModal&#45;&gt;AppModule</title>
<path fill="none" stroke="#000000" d="M2931,-198.1243C2931,-212.7832 2931,-231 2931,-231 2931,-231 3356.9996,-231 3356.9996,-231"/>
<polygon fill="#000000" stroke="#000000" points="3356.9997,-234.5001 3366.9996,-231 3356.9996,-227.5001 3356.9997,-234.5001"/>
</g>
<!-- FloatingIPPage -->
<g id="node22" class="node">
<title>FloatingIPPage</title>
<polygon fill="#ffffb3" stroke="#000000" points="2847.3245,-198 2744.6755,-198 2744.6755,-162 2847.3245,-162 2847.3245,-198"/>
<text text-anchor="middle" x="2796" y="-175.8" font-family="Times,serif" font-size="14.00" fill="#000000">FloatingIPPage</text>
</g>
<!-- FloatingIPPage&#45;&gt;AppModule -->
<g id="edge22" class="edge">
<title>FloatingIPPage&#45;&gt;AppModule</title>
<path fill="none" stroke="#000000" d="M2796,-198.2396C2796,-213.5706 2796,-233 2796,-233 2796,-233 3356.866,-233 3356.866,-233"/>
<polygon fill="#000000" stroke="#000000" points="3356.8661,-236.5001 3366.866,-233 3356.866,-229.5001 3356.8661,-236.5001"/>
</g>
<!-- ImagesPage -->
<g id="node23" class="node">
<title>ImagesPage</title>
<polygon fill="#ffffb3" stroke="#000000" points="2726.6376,-198 2643.3624,-198 2643.3624,-162 2726.6376,-162 2726.6376,-198"/>
<text text-anchor="middle" x="2685" y="-175.8" font-family="Times,serif" font-size="14.00" fill="#000000">ImagesPage</text>
</g>
<!-- ImagesPage&#45;&gt;AppModule -->
<g id="edge23" class="edge">
<title>ImagesPage&#45;&gt;AppModule</title>
<path fill="none" stroke="#000000" d="M2685,-198.0091C2685,-214.0494 2685,-235 2685,-235 2685,-235 3357.2101,-235 3357.2101,-235"/>
<polygon fill="#000000" stroke="#000000" points="3357.2102,-238.5001 3367.2101,-235 3357.2101,-231.5001 3357.2102,-238.5001"/>
</g>
<!-- editImageModal -->
<g id="node24" class="node">
<title>editImageModal</title>
<polygon fill="#ffffb3" stroke="#000000" points="2625.027,-198 2516.973,-198 2516.973,-162 2625.027,-162 2625.027,-198"/>
<text text-anchor="middle" x="2571" y="-175.8" font-family="Times,serif" font-size="14.00" fill="#000000">editImageModal</text>
</g>
<!-- editImageModal&#45;&gt;AppModule -->
<g id="edge24" class="edge">
<title>editImageModal&#45;&gt;AppModule</title>
<path fill="none" stroke="#000000" d="M2571,-198.0352C2571,-214.7344 2571,-237 2571,-237 2571,-237 3357.1567,-237 3357.1567,-237"/>
<polygon fill="#000000" stroke="#000000" points="3357.1568,-240.5001 3367.1567,-237 3357.1567,-233.5001 3357.1568,-240.5001"/>
</g>
<!-- assignToServerModal -->
<g id="node25" class="node">
<title>assignToServerModal</title>
<polygon fill="#ffffb3" stroke="#000000" points="2498.6303,-198 2359.3697,-198 2359.3697,-162 2498.6303,-162 2498.6303,-198"/>
<text text-anchor="middle" x="2429" y="-175.8" font-family="Times,serif" font-size="14.00" fill="#000000">assignToServerModal</text>
</g>
<!-- assignToServerModal&#45;&gt;AppModule -->
<g id="edge25" class="edge">
<title>assignToServerModal&#45;&gt;AppModule</title>
<path fill="none" stroke="#000000" d="M2429,-198.0225C2429,-215.3734 2429,-239 2429,-239 2429,-239 3357.2041,-239 3357.2041,-239"/>
<polygon fill="#000000" stroke="#000000" points="3357.2042,-242.5001 3367.2041,-239 3357.2041,-235.5001 3357.2042,-242.5001"/>
</g>
<!-- HetznerStatusSettingPage -->
<g id="node26" class="node">
<title>HetznerStatusSettingPage</title>
<polygon fill="#ffffb3" stroke="#000000" points="2340.9059,-198 2179.0941,-198 2179.0941,-162 2340.9059,-162 2340.9059,-198"/>
<text text-anchor="middle" x="2260" y="-175.8" font-family="Times,serif" font-size="14.00" fill="#000000">HetznerStatusSettingPage</text>
</g>
<!-- HetznerStatusSettingPage&#45;&gt;AppModule -->
<g id="edge26" class="edge">
<title>HetznerStatusSettingPage&#45;&gt;AppModule</title>
<path fill="none" stroke="#000000" d="M2260,-198.302C2260,-216.2699 2260,-241 2260,-241 2260,-241 3357.0864,-241 3357.0864,-241"/>
<polygon fill="#000000" stroke="#000000" points="3357.0864,-244.5001 3367.0864,-241 3357.0863,-237.5001 3357.0864,-244.5001"/>
</g>
<!-- HetznerStatusPage -->
<g id="node27" class="node">
<title>HetznerStatusPage</title>
<polygon fill="#ffffb3" stroke="#000000" points="2160.7367,-198 2039.2633,-198 2039.2633,-162 2160.7367,-162 2160.7367,-198"/>
<text text-anchor="middle" x="2100" y="-175.8" font-family="Times,serif" font-size="14.00" fill="#000000">HetznerStatusPage</text>
</g>
<!-- HetznerStatusPage&#45;&gt;AppModule -->
<g id="edge27" class="edge">
<title>HetznerStatusPage&#45;&gt;AppModule</title>
<path fill="none" stroke="#000000" d="M2100,-198.2222C2100,-216.8285 2100,-243 2100,-243 2100,-243 3357.2968,-243 3357.2968,-243"/>
<polygon fill="#000000" stroke="#000000" points="3357.2968,-246.5001 3367.2968,-243 3357.2967,-239.5001 3357.2968,-246.5001"/>
</g>
<!-- ServerMetricsPage -->
<g id="node28" class="node">
<title>ServerMetricsPage</title>
<polygon fill="#ffffb3" stroke="#000000" points="2021.006,-198 1898.994,-198 1898.994,-162 2021.006,-162 2021.006,-198"/>
<text text-anchor="middle" x="1960" y="-175.8" font-family="Times,serif" font-size="14.00" fill="#000000">ServerMetricsPage</text>
</g>
<!-- ServerMetricsPage&#45;&gt;AppModule -->
<g id="edge28" class="edge">
<title>ServerMetricsPage&#45;&gt;AppModule</title>
<path fill="none" stroke="#000000" d="M1960,-198.1061C1960,-217.3391 1960,-245 1960,-245 1960,-245 3357.1969,-245 3357.1969,-245"/>
<polygon fill="#000000" stroke="#000000" points="3357.197,-248.5001 3367.1969,-245 3357.1969,-241.5001 3357.197,-248.5001"/>
</g>
<!-- SettingsPage -->
<g id="node29" class="node">
<title>SettingsPage</title>
<polygon fill="#ffffb3" stroke="#000000" points="1881.326,-198 1792.674,-198 1792.674,-162 1881.326,-162 1881.326,-198"/>
<text text-anchor="middle" x="1837" y="-175.8" font-family="Times,serif" font-size="14.00" fill="#000000">SettingsPage</text>
</g>
<!-- SettingsPage&#45;&gt;AppModule -->
<g id="edge29" class="edge">
<title>SettingsPage&#45;&gt;AppModule</title>
<path fill="none" stroke="#000000" d="M1837,-198.308C1837,-218.1455 1837,-247 1837,-247 1837,-247 3356.9528,-247 3356.9528,-247"/>
<polygon fill="#000000" stroke="#000000" points="3356.9528,-250.5001 3366.9528,-247 3356.9528,-243.5001 3356.9528,-250.5001"/>
</g>
<!-- ActionsPage -->
<g id="node30" class="node">
<title>ActionsPage</title>
<polygon fill="#ffffb3" stroke="#000000" points="1774.2591,-198 1687.7409,-198 1687.7409,-162 1774.2591,-162 1774.2591,-198"/>
<text text-anchor="middle" x="1731" y="-175.8" font-family="Times,serif" font-size="14.00" fill="#000000">ActionsPage</text>
</g>
<!-- ActionsPage&#45;&gt;AppModule -->
<g id="edge30" class="edge">
<title>ActionsPage&#45;&gt;AppModule</title>
<path fill="none" stroke="#000000" d="M1731,-198.1289C1731,-218.5724 1731,-249 1731,-249 1731,-249 3357.1025,-249 3357.1025,-249"/>
<polygon fill="#000000" stroke="#000000" points="3357.1025,-252.5001 3367.1025,-249 3357.1024,-245.5001 3357.1025,-252.5001"/>
</g>
<!-- consoleModal -->
<g id="node31" class="node">
<title>consoleModal</title>
<polygon fill="#ffffb3" stroke="#000000" points="1669.8147,-198 1574.1853,-198 1574.1853,-162 1669.8147,-162 1669.8147,-198"/>
<text text-anchor="middle" x="1622" y="-175.8" font-family="Times,serif" font-size="14.00" fill="#000000">consoleModal</text>
</g>
<!-- consoleModal&#45;&gt;AppModule -->
<g id="edge31" class="edge">
<title>consoleModal&#45;&gt;AppModule</title>
<path fill="none" stroke="#000000" d="M1622,-198.2843C1622,-219.3211 1622,-251 1622,-251 1622,-251 3357.0247,-251 3357.0247,-251"/>
<polygon fill="#000000" stroke="#000000" points="3357.0247,-254.5001 3367.0247,-251 3357.0247,-247.5001 3357.0247,-254.5001"/>
</g>
<!-- SshkeysPage -->
<g id="node32" class="node">
<title>SshkeysPage</title>
<polygon fill="#ffffb3" stroke="#000000" points="1556.5983,-198 1467.4017,-198 1467.4017,-162 1556.5983,-162 1556.5983,-198"/>
<text text-anchor="middle" x="1512" y="-175.8" font-family="Times,serif" font-size="14.00" fill="#000000">SshkeysPage</text>
</g>
<!-- SshkeysPage&#45;&gt;AppModule -->
<g id="edge32" class="edge">
<title>SshkeysPage&#45;&gt;AppModule</title>
<path fill="none" stroke="#000000" d="M1512,-198.0449C1512,-219.6623 1512,-253 1512,-253 1512,-253 3357.1676,-253 3357.1676,-253"/>
<polygon fill="#000000" stroke="#000000" points="3357.1676,-256.5001 3367.1676,-253 3357.1676,-249.5001 3357.1676,-256.5001"/>
</g>
<!-- editSSHKeyModal -->
<g id="node33" class="node">
<title>editSSHKeyModal</title>
<polygon fill="#ffffb3" stroke="#000000" points="1449.0395,-198 1326.9605,-198 1326.9605,-162 1449.0395,-162 1449.0395,-198"/>
<text text-anchor="middle" x="1388" y="-175.8" font-family="Times,serif" font-size="14.00" fill="#000000">editSSHKeyModal</text>
</g>
<!-- editSSHKeyModal&#45;&gt;AppModule -->
<g id="edge33" class="edge">
<title>editSSHKeyModal&#45;&gt;AppModule</title>
<path fill="none" stroke="#000000" d="M1388,-198.1554C1388,-220.3519 1388,-255 1388,-255 1388,-255 3357.2524,-255 3357.2524,-255"/>
<polygon fill="#000000" stroke="#000000" points="3357.2525,-258.5001 3367.2524,-255 3357.2524,-251.5001 3357.2525,-258.5001"/>
</g>
<!-- IonicApp  -->
<g id="node38" class="node">
<title>IonicApp </title>
<polygon fill="#80b1d3" stroke="#000000" points="3445.3734,-331 3372.6266,-331 3372.6266,-295 3445.3734,-295 3445.3734,-331"/>
<text text-anchor="middle" x="3409" y="-308.8" font-family="Times,serif" font-size="14.00" fill="#000000">IonicApp </text>
</g>
<!-- AppModule&#45;&gt;IonicApp  -->
<g id="edge37" class="edge">
<title>AppModule&#45;&gt;IonicApp </title>
<path fill="none" stroke="#000000" stroke-dasharray="1,5" d="M3409,-263.2228C3409,-263.2228 3409,-284.7269 3409,-284.7269"/>
<polygon fill="#000000" stroke="#000000" points="3405.5001,-284.7269 3409,-294.7269 3412.5001,-284.727 3405.5001,-284.7269"/>
</g>
<!-- ProjectModule -->
<g id="node35" class="node">
<title>ProjectModule</title>
<polygon fill="#8dd3c7" stroke="#000000" points="1183.7036,-198 1180.7036,-202 1159.7036,-202 1156.7036,-198 1084.2964,-198 1084.2964,-162 1183.7036,-162 1183.7036,-198"/>
<text text-anchor="middle" x="1134" y="-175.8" font-family="Times,serif" font-size="14.00" fill="#000000">ProjectModule</text>
</g>
<!-- ProjectModule&#45;&gt;AppModule -->
<g id="edge34" class="edge">
<title>ProjectModule&#45;&gt;AppModule</title>
<path fill="none" stroke="#000000" d="M1134,-198.3228C1134,-221.6602 1134,-259 1134,-259 1134,-259 3357.0787,-259 3357.0787,-259"/>
<polygon fill="#000000" stroke="#000000" points="3357.0788,-262.5001 3367.0787,-259 3357.0787,-255.5001 3357.0788,-262.5001"/>
</g>
<!-- ServersModule -->
<g id="node36" class="node">
<title>ServersModule</title>
<polygon fill="#8dd3c7" stroke="#000000" points="1302.5285,-198 1299.5285,-202 1278.5285,-202 1275.5285,-198 1201.4715,-198 1201.4715,-162 1302.5285,-162 1302.5285,-198"/>
<text text-anchor="middle" x="1252" y="-175.8" font-family="Times,serif" font-size="14.00" fill="#000000">ServersModule</text>
</g>
<!-- ServersModule&#45;&gt;AppModule -->
<g id="edge35" class="edge">
<title>ServersModule&#45;&gt;AppModule</title>
<path fill="none" stroke="#000000" d="M1252,-198.2479C1252,-221.0179 1252,-257 1252,-257 1252,-257 3356.8803,-257 3356.8803,-257"/>
<polygon fill="#000000" stroke="#000000" points="3356.8803,-260.5001 3366.8803,-257 3356.8802,-253.5001 3356.8803,-260.5001"/>
</g>
<!-- HetznerApiProviderModule -->
<g id="node37" class="node">
<title>HetznerApiProviderModule</title>
<polygon fill="#8dd3c7" stroke="#000000" points="1066.5576,-198 1063.5576,-202 1042.5576,-202 1039.5576,-198 893.4424,-198 893.4424,-162 1066.5576,-162 1066.5576,-198"/>
<text text-anchor="middle" x="980" y="-175.8" font-family="Times,serif" font-size="14.00" fill="#000000">HetznerApiProviderModule</text>
</g>
<!-- HetznerApiProviderModule&#45;&gt;AppModule -->
<g id="edge36" class="edge">
<title>HetznerApiProviderModule&#45;&gt;AppModule</title>
<path fill="none" stroke="#000000" d="M980,-198.3802C980,-222.2785 980,-261 980,-261 980,-261 3357.0961,-261 3357.0961,-261"/>
<polygon fill="#000000" stroke="#000000" points="3357.0961,-264.5001 3367.0961,-261 3357.096,-257.5001 3357.0961,-264.5001"/>
</g>
<!-- ServerStatusIndicatorComponent -->
<g id="node39" class="node">
<title>ServerStatusIndicatorComponent</title>
<polygon fill="#ffffb3" stroke="#000000" points="6196.1204,-122 5993.8796,-122 5993.8796,-86 6196.1204,-86 6196.1204,-122"/>
<text text-anchor="middle" x="6095" y="-99.8" font-family="Times,serif" font-size="14.00" fill="#000000">ServerStatusIndicatorComponent</text>
</g>
<!-- ComponentsModule -->
<g id="node41" class="node">
<title>ComponentsModule</title>
<polygon fill="#8dd3c7" stroke="#000000" points="5952.3272,-198 5949.3272,-202 5928.3272,-202 5925.3272,-198 5821.6728,-198 5821.6728,-162 5952.3272,-162 5952.3272,-198"/>
<text text-anchor="middle" x="5887" y="-175.8" font-family="Times,serif" font-size="14.00" fill="#000000">ComponentsModule</text>
</g>
<!-- ServerStatusIndicatorComponent&#45;&gt;ComponentsModule -->
<g id="edge38" class="edge">
<title>ServerStatusIndicatorComponent&#45;&gt;ComponentsModule</title>
<path fill="none" stroke="#000000" d="M6061.23,-122.0267C6061.23,-142.7672 6061.23,-174 6061.23,-174 6061.23,-174 5962.3725,-174 5962.3725,-174"/>
<polygon fill="#000000" stroke="#000000" points="5962.3726,-170.5001 5952.3725,-174 5962.3725,-177.5001 5962.3726,-170.5001"/>
</g>
<!-- LoadingIndicatorComponent -->
<g id="node40" class="node">
<title>LoadingIndicatorComponent</title>
<polygon fill="#ffffb3" stroke="#000000" points="5975.0224,-122 5796.9776,-122 5796.9776,-86 5975.0224,-86 5975.0224,-122"/>
<text text-anchor="middle" x="5886" y="-99.8" font-family="Times,serif" font-size="14.00" fill="#000000">LoadingIndicatorComponent</text>
</g>
<!-- LoadingIndicatorComponent&#45;&gt;ComponentsModule -->
<g id="edge39" class="edge">
<title>LoadingIndicatorComponent&#45;&gt;ComponentsModule</title>
<path fill="none" stroke="#000000" d="M5887,-122.0109C5887,-122.0109 5887,-151.855 5887,-151.855"/>
<polygon fill="#000000" stroke="#000000" points="5883.5001,-151.8549 5887,-161.855 5890.5001,-151.855 5883.5001,-151.8549"/>
</g>
<!-- ServerStatusIndicatorComponent  -->
<g id="node42" class="node">
<title>ServerStatusIndicatorComponent </title>
<polygon fill="#fb8072" stroke="#000000" points="6199.12,-263 5992.88,-263 5992.88,-227 6199.12,-227 6199.12,-263"/>
<text text-anchor="middle" x="6096" y="-240.8" font-family="Times,serif" font-size="14.00" fill="#000000">ServerStatusIndicatorComponent </text>
</g>
<!-- ComponentsModule&#45;&gt;ServerStatusIndicatorComponent  -->
<g id="edge40" class="edge">
<title>ComponentsModule&#45;&gt;ServerStatusIndicatorComponent </title>
<path fill="none" stroke="#000000" stroke-dasharray="5,2" d="M5952.4264,-186C6024.0277,-186 6128.77,-186 6128.77,-186 6128.77,-186 6128.77,-216.9775 6128.77,-216.9775"/>
<polygon fill="#000000" stroke="#000000" points="6125.2701,-216.9774 6128.77,-226.9775 6132.2701,-216.9775 6125.2701,-216.9774"/>
</g>
<!-- LoadingIndicatorComponent  -->
<g id="node43" class="node">
<title>LoadingIndicatorComponent </title>
<polygon fill="#fb8072" stroke="#000000" points="5975.0218,-263 5792.9782,-263 5792.9782,-227 5975.0218,-227 5975.0218,-263"/>
<text text-anchor="middle" x="5884" y="-240.8" font-family="Times,serif" font-size="14.00" fill="#000000">LoadingIndicatorComponent </text>
</g>
<!-- ComponentsModule&#45;&gt;LoadingIndicatorComponent  -->
<g id="edge41" class="edge">
<title>ComponentsModule&#45;&gt;LoadingIndicatorComponent </title>
<path fill="none" stroke="#000000" stroke-dasharray="5,2" d="M5887,-198.1061C5887,-198.1061 5887,-216.991 5887,-216.991"/>
<polygon fill="#000000" stroke="#000000" points="5883.5001,-216.9909 5887,-226.991 5890.5001,-216.991 5883.5001,-216.9909"/>
</g>
<!-- ServerApiProvider -->
<g id="node44" class="node">
<title>ServerApiProvider</title>
<ellipse fill="#fdb462" stroke="#000000" cx="1512" cy="-104" rx="83.947" ry="18"/>
<text text-anchor="middle" x="1512" y="-99.8" font-family="Times,serif" font-size="14.00" fill="#000000">ServerApiProvider</text>
</g>
<!-- ServerApiProvider&#45;&gt;HetznerApiProviderModule -->
<g id="edge42" class="edge">
<title>ServerApiProvider&#45;&gt;HetznerApiProviderModule</title>
<path fill="none" stroke="#000000" d="M1438.6479,-112.9331C1438.6479,-123.0067 1438.6479,-138 1438.6479,-138 1438.6479,-138 1046.3945,-138 1046.3945,-138 1046.3945,-138 1046.3945,-151.9445 1046.3945,-151.9445"/>
<polygon fill="#000000" stroke="#000000" points="1042.8946,-151.9444 1046.3945,-161.9445 1049.8946,-151.9445 1042.8946,-151.9444"/>
</g>
<!-- ServerTypeApiProvider -->
<g id="node45" class="node">
<title>ServerTypeApiProvider</title>
<ellipse fill="#fdb462" stroke="#000000" cx="1306" cy="-104" rx="103.6335" ry="18"/>
<text text-anchor="middle" x="1306" y="-99.8" font-family="Times,serif" font-size="14.00" fill="#000000">ServerTypeApiProvider</text>
</g>
<!-- ServerTypeApiProvider&#45;&gt;HetznerApiProviderModule -->
<g id="edge43" class="edge">
<title>ServerTypeApiProvider&#45;&gt;HetznerApiProviderModule</title>
<path fill="none" stroke="#000000" d="M1235.7102,-117.3047C1235.7102,-123.7015 1235.7102,-130 1235.7102,-130 1235.7102,-130 1026.2602,-130 1026.2602,-130 1026.2602,-130 1026.2602,-151.9489 1026.2602,-151.9489"/>
<polygon fill="#000000" stroke="#000000" points="1022.7603,-151.9488 1026.2602,-161.9489 1029.7603,-151.9489 1022.7603,-151.9488"/>
</g>
<!-- FloatingIpApiProvider -->
<g id="node46" class="node">
<title>FloatingIpApiProvider</title>
<ellipse fill="#fdb462" stroke="#000000" cx="1085" cy="-104" rx="99.0168" ry="18"/>
<text text-anchor="middle" x="1085" y="-99.8" font-family="Times,serif" font-size="14.00" fill="#000000">FloatingIpApiProvider</text>
</g>
<!-- FloatingIpApiProvider&#45;&gt;HetznerApiProviderModule -->
<g id="edge44" class="edge">
<title>FloatingIpApiProvider&#45;&gt;HetznerApiProviderModule</title>
<path fill="none" stroke="#000000" d="M1006.1259,-114.8889C1006.1259,-114.8889 1006.1259,-151.7946 1006.1259,-151.7946"/>
<polygon fill="#000000" stroke="#000000" points="1002.626,-151.7946 1006.1259,-161.7946 1009.626,-151.7946 1002.626,-151.7946"/>
</g>
<!-- LocationApiProvider -->
<g id="node47" class="node">
<title>LocationApiProvider</title>
<ellipse fill="#fdb462" stroke="#000000" cx="875" cy="-104" rx="93.1987" ry="18"/>
<text text-anchor="middle" x="875" y="-99.8" font-family="Times,serif" font-size="14.00" fill="#000000">LocationApiProvider</text>
</g>
<!-- LocationApiProvider&#45;&gt;HetznerApiProviderModule -->
<g id="edge45" class="edge">
<title>LocationApiProvider&#45;&gt;HetznerApiProviderModule</title>
<path fill="none" stroke="#000000" d="M930.7852,-118.6536C930.7852,-118.6536 930.7852,-151.9047 930.7852,-151.9047"/>
<polygon fill="#000000" stroke="#000000" points="927.2853,-151.9047 930.7852,-161.9047 934.2853,-151.9048 927.2853,-151.9047"/>
</g>
<!-- ActionsApiProvider -->
<g id="node48" class="node">
<title>ActionsApiProvider</title>
<ellipse fill="#fdb462" stroke="#000000" cx="675" cy="-104" rx="88.6236" ry="18"/>
<text text-anchor="middle" x="675" y="-99.8" font-family="Times,serif" font-size="14.00" fill="#000000">ActionsApiProvider</text>
</g>
<!-- ActionsApiProvider&#45;&gt;HetznerApiProviderModule -->
<g id="edge46" class="edge">
<title>ActionsApiProvider&#45;&gt;HetznerApiProviderModule</title>
<path fill="none" stroke="#000000" d="M675,-122.0348C675,-141.5762 675,-170 675,-170 675,-170 883.4151,-170 883.4151,-170"/>
<polygon fill="#000000" stroke="#000000" points="883.4151,-173.5001 893.4151,-170 883.415,-166.5001 883.4151,-173.5001"/>
</g>
<!-- ImageApiProvider -->
<g id="node49" class="node">
<title>ImageApiProvider</title>
<ellipse fill="#fdb462" stroke="#000000" cx="485" cy="-104" rx="82.8052" ry="18"/>
<text text-anchor="middle" x="485" y="-99.8" font-family="Times,serif" font-size="14.00" fill="#000000">ImageApiProvider</text>
</g>
<!-- ImageApiProvider&#45;&gt;HetznerApiProviderModule -->
<g id="edge47" class="edge">
<title>ImageApiProvider&#45;&gt;HetznerApiProviderModule</title>
<path fill="none" stroke="#000000" d="M485,-122.0449C485,-143.6623 485,-177 485,-177 485,-177 883.2111,-177 883.2111,-177"/>
<polygon fill="#000000" stroke="#000000" points="883.2112,-180.5001 893.2111,-177 883.2111,-173.5001 883.2112,-180.5001"/>
</g>
<!-- SshKeyApiProvider -->
<g id="node50" class="node">
<title>SshKeyApiProvider</title>
<ellipse fill="#fdb462" stroke="#000000" cx="295" cy="-104" rx="88.6255" ry="18"/>
<text text-anchor="middle" x="295" y="-99.8" font-family="Times,serif" font-size="14.00" fill="#000000">SshKeyApiProvider</text>
</g>
<!-- SshKeyApiProvider&#45;&gt;HetznerApiProviderModule -->
<g id="edge48" class="edge">
<title>SshKeyApiProvider&#45;&gt;HetznerApiProviderModule</title>
<path fill="none" stroke="#000000" d="M295,-122.1532C295,-145.7566 295,-184 295,-184 295,-184 883.2443,-184 883.2443,-184"/>
<polygon fill="#000000" stroke="#000000" points="883.2443,-187.5001 893.2443,-184 883.2442,-180.5001 883.2443,-187.5001"/>
</g>
<!-- StatusApiProvider -->
<g id="node51" class="node">
<title>StatusApiProvider</title>
<ellipse fill="#fdb462" stroke="#000000" cx="106" cy="-104" rx="82.2603" ry="18"/>
<text text-anchor="middle" x="106" y="-99.8" font-family="Times,serif" font-size="14.00" fill="#000000">StatusApiProvider</text>
</g>
<!-- StatusApiProvider&#45;&gt;HetznerApiProviderModule -->
<g id="edge49" class="edge">
<title>StatusApiProvider&#45;&gt;HetznerApiProviderModule</title>
<path fill="none" stroke="#000000" d="M106,-122.0265C106,-147.5093 106,-191 106,-191 106,-191 883.4043,-191 883.4043,-191"/>
<polygon fill="#000000" stroke="#000000" points="883.4043,-194.5001 893.4043,-191 883.4043,-187.5001 883.4043,-194.5001"/>
</g>
<!-- FileSizePipe -->
<g id="node52" class="node">
<title>FileSizePipe</title>
<polygon fill="#ffffb3" stroke="#000000" points="6327.2689,-122 6240.7311,-122 6240.7311,-86 6327.2689,-86 6327.2689,-122"/>
<text text-anchor="middle" x="6284" y="-99.8" font-family="Times,serif" font-size="14.00" fill="#000000">FileSizePipe</text>
</g>
<!-- PipesModule -->
<g id="node53" class="node">
<title>PipesModule</title>
<polygon fill="#8dd3c7" stroke="#000000" points="6328.8823,-198 6325.8823,-202 6304.8823,-202 6301.8823,-198 6239.1177,-198 6239.1177,-162 6328.8823,-162 6328.8823,-198"/>
<text text-anchor="middle" x="6284" y="-175.8" font-family="Times,serif" font-size="14.00" fill="#000000">PipesModule</text>
</g>
<!-- FileSizePipe&#45;&gt;PipesModule -->
<g id="edge50" class="edge">
<title>FileSizePipe&#45;&gt;PipesModule</title>
<path fill="none" stroke="#000000" d="M6284,-122.0109C6284,-122.0109 6284,-151.855 6284,-151.855"/>
<polygon fill="#000000" stroke="#000000" points="6280.5001,-151.8549 6284,-161.855 6287.5001,-151.855 6280.5001,-151.8549"/>
</g>
<!-- FileSizePipe  -->
<g id="node54" class="node">
<title>FileSizePipe </title>
<polygon fill="#fb8072" stroke="#000000" points="6329.269,-263 6238.731,-263 6238.731,-227 6329.269,-227 6329.269,-263"/>
<text text-anchor="middle" x="6284" y="-240.8" font-family="Times,serif" font-size="14.00" fill="#000000">FileSizePipe </text>
</g>
<!-- PipesModule&#45;&gt;FileSizePipe  -->
<g id="edge51" class="edge">
<title>PipesModule&#45;&gt;FileSizePipe </title>
<path fill="none" stroke="#000000" stroke-dasharray="5,2" d="M6284,-198.1061C6284,-198.1061 6284,-216.991 6284,-216.991"/>
<polygon fill="#000000" stroke="#000000" points="6280.5001,-216.9909 6284,-226.991 6287.5001,-216.991 6280.5001,-216.9909"/>
</g>
<!-- ProjectsService -->
<g id="node55" class="node">
<title>ProjectsService</title>
<ellipse fill="#fdb462" stroke="#000000" cx="1707" cy="-104" rx="71.1998" ry="18"/>
<text text-anchor="middle" x="1707" y="-99.8" font-family="Times,serif" font-size="14.00" fill="#000000">ProjectsService</text>
</g>
<!-- ProjectsService&#45;&gt;ProjectModule -->
<g id="edge52" class="edge">
<title>ProjectsService&#45;&gt;ProjectModule</title>
<path fill="none" stroke="#000000" d="M1652.7786,-115.9232C1652.7786,-128.3402 1652.7786,-146 1652.7786,-146 1652.7786,-146 1134,-146 1134,-146 1134,-146 1134,-151.8056 1134,-151.8056"/>
<polygon fill="#000000" stroke="#000000" points="1130.5001,-151.8055 1134,-161.8056 1137.5001,-151.8056 1130.5001,-151.8055"/>
</g>
<!-- ServersService -->
<g id="node56" class="node">
<title>ServersService</title>
<ellipse fill="#fdb462" stroke="#000000" cx="1887" cy="-104" rx="68.8946" ry="18"/>
<text text-anchor="middle" x="1887" y="-99.8" font-family="Times,serif" font-size="14.00" fill="#000000">ServersService</text>
</g>
<!-- ServersService&#45;&gt;ServersModule -->
<g id="edge53" class="edge">
<title>ServersService&#45;&gt;ServersModule</title>
<path fill="none" stroke="#000000" d="M1849.6077,-119.2733C1849.6077,-133.9774 1849.6077,-154 1849.6077,-154 1849.6077,-154 1269.2369,-154 1269.2369,-154 1269.2369,-154 1269.2369,-154.7942 1269.2369,-154.7942"/>
<polygon fill="#000000" stroke="#000000" points="1265.7371,-151.9421 1269.2369,-161.9421 1272.7371,-151.9422 1265.7371,-151.9421"/>
</g>
</g>
</svg>
